statusNikah,jumlahTanggungan,pekerjaan,gaji,nilaiLoan,terbayar,status
Nikah,Sedang,PNS,Besar,75000000,10000000,GAGAL
Nikah,Sedang,Swasta,Besar,60000000,16000000,GAGAL
Lajang,Sedikit,TNI,Besar,45000000,5000000,GAGAL
Lajang,Sedikit,Swasta,Besar,45000000,15000000,SUKSES
Lajang,Sedikit,Swasta,Besar,45000000,15000000,SUKSES
Lajang,Sedikit,TNI,Besar,45000000,15000000,SUKSES
Lajang,Sedikit,TNI,Besar,45000000,15000000,SUKSES
Nikah,Sedang,PNS,Besar,75000000,10000000,GAGAL
Nikah,Sedang,Swasta,Besar,60000000,16000000,GAGAL
Lajang,Sedikit,TNI,Besar,45000000,5000000,GAGAL
Nikah,Sedang,PNS,Besar,75000000,10000000,GAGAL
Nikah,Sedang,Swasta,Besar,60000000,16000000,GAGAL
Lajang,Sedikit,TNI,Besar,45000000,5000000,GAGAL
Lajang,Sedikit,Swasta,Besar,45000000,15000000,SUKSES
Lajang,Sedikit,Swasta,Besar,45000000,15000000,SUKSES
Lajang,Sedikit,TNI,Besar,45000000,15000000,SUKSES
Lajang,Sedikit,TNI,Besar,45000000,15000000,SUKSES
Nikah,Sedang,PNS,Besar,75000000,10000000,GAGAL
Nikah,Sedang,Swasta,Besar,60000000,16000000,GAGAL
Lajang,Sedikit,TNI,Besar,45000000,5000000,GAGAL
Nikah,Sedang,PNS,Besar,75000000,10000000,GAGAL
Nikah,Sedang,Swasta,Besar,60000000,16000000,GAGAL
Lajang,Sedikit,TNI,Besar,45000000,5000000,GAGAL
Lajang,Sedikit,Swasta,Besar,45000000,15000000,SUKSES
Lajang,Sedikit,Swasta,Besar,45000000,15000000,SUKSES
Lajang,Sedikit,TNI,Besar,45000000,15000000,SUKSES
Lajang,Sedikit,TNI,Besar,45000000,15000000,SUKSES
Nikah,Sedang,PNS,Besar,75000000,10000000,GAGAL
Nikah,Sedang,Swasta,Besar,60000000,16000000,GAGAL
Lajang,Sedikit,TNI,Besar,45000000,5000000,GAGAL
Nikah,Sedang,PNS,Besar,75000000,10000000,GAGAL
Nikah,Sedang,Swasta,Besar,60000000,16000000,GAGAL
Lajang,Sedikit,TNI,Besar,45000000,5000000,GAGAL
Lajang,Sedikit,Swasta,Besar,45000000,15000000,SUKSES
Lajang,Sedikit,Swasta,Besar,45000000,15000000,SUKSES
Lajang,Sedikit,TNI,Besar,45000000,15000000,SUKSES
Lajang,Sedikit,TNI,Besar,45000000,15000000,SUKSES
Nikah,Sedang,PNS,Besar,75000000,10000000,GAGAL
Nikah,Sedang,Swasta,Besar,60000000,16000000,GAGAL
Lajang,Sedikit,TNI,Besar,45000000,5000000,GAGAL
Nikah,Sedang,PNS,Besar,75000000,10000000,GAGAL
Nikah,Sedang,Swasta,Besar,60000000,16000000,GAGAL
Lajang,Sedikit,TNI,Besar,45000000,5000000,GAGAL
Lajang,Sedikit,Swasta,Besar,45000000,15000000,SUKSES
Lajang,Sedikit,Swasta,Besar,45000000,15000000,SUKSES
Lajang,Sedikit,TNI,Besar,45000000,15000000,SUKSES
Lajang,Sedikit,TNI,Besar,45000000,15000000,SUKSES
Nikah,Sedang,PNS,Besar,75000000,10000000,GAGAL
Nikah,Sedang,Swasta,Besar,60000000,16000000,GAGAL
Lajang,Sedikit,TNI,Besar,45000000,5000000,GAGAL
Nikah,Sedang,PNS,Besar,75000000,10000000,GAGAL
Nikah,Sedang,Swasta,Besar,60000000,16000000,GAGAL
Lajang,Sedikit,TNI,Besar,45000000,5000000,GAGAL
Lajang,Sedikit,Swasta,Besar,45000000,15000000,SUKSES
Lajang,Sedikit,Swasta,Besar,45000000,15000000,SUKSES
Lajang,Sedikit,TNI,Besar,45000000,15000000,SUKSES
Lajang,Sedikit,TNI,Besar,45000000,15000000,SUKSES
Nikah,Sedang,PNS,Besar,75000000,10000000,GAGAL
Nikah,Sedang,Swasta,Besar,60000000,16000000,GAGAL
Lajang,Sedikit,TNI,Besar,45000000,5000000,GAGAL
Nikah,Sedang,PNS,Besar,75000000,10000000,GAGAL
Nikah,Sedang,Swasta,Besar,60000000,16000000,GAGAL
Lajang,Sedikit,TNI,Besar,45000000,5000000,GAGAL
Lajang,Sedikit,Swasta,Besar,45000000,15000000,SUKSES
Lajang,Sedikit,Swasta,Besar,45000000,15000000,SUKSES
Lajang,Sedikit,TNI,Besar,45000000,15000000,SUKSES
Lajang,Sedikit,TNI,Besar,45000000,15000000,SUKSES
Nikah,Sedang,PNS,Besar,75000000,10000000,GAGAL
Nikah,Sedang,Swasta,Besar,60000000,16000000,GAGAL
Lajang,Sedikit,TNI,Besar,45000000,5000000,GAGAL
Nikah,Sedang,PNS,Besar,75000000,10000000,GAGAL
Nikah,Sedang,Swasta,Besar,60000000,16000000,GAGAL
Lajang,Sedikit,TNI,Besar,45000000,5000000,GAGAL
Lajang,Sedikit,Swasta,Besar,45000000,15000000,SUKSES
Lajang,Sedikit,Swasta,Besar,45000000,15000000,SUKSES
Lajang,Sedikit,TNI,Besar,45000000,15000000,SUKSES
Lajang,Sedikit,TNI,Besar,45000000,15000000,SUKSES
Nikah,Sedang,PNS,Besar,75000000,10000000,GAGAL
Nikah,Sedang,Swasta,Besar,60000000,16000000,GAGAL
Lajang,Sedikit,TNI,Besar,45000000,5000000,GAGAL
Nikah,Sedang,PNS,Besar,75000000,10000000,GAGAL
Nikah,Sedang,Swasta,Besar,60000000,16000000,GAGAL
Lajang,Sedikit,TNI,Besar,45000000,5000000,GAGAL
Lajang,Sedikit,Swasta,Besar,45000000,15000000,SUKSES
Lajang,Sedikit,Swasta,Besar,45000000,15000000,SUKSES
Lajang,Sedikit,TNI,Besar,45000000,15000000,SUKSES
Lajang,Sedikit,TNI,Besar,45000000,15000000,SUKSES
Nikah,Sedang,PNS,Besar,75000000,10000000,GAGAL
Nikah,Sedang,Swasta,Besar,60000000,16000000,GAGAL
Lajang,Sedikit,TNI,Besar,45000000,5000000,GAGAL
Nikah,Sedang,PNS,Besar,75000000,10000000,GAGAL
Nikah,Sedang,Swasta,Besar,60000000,16000000,GAGAL
Lajang,Sedikit,TNI,Besar,45000000,5000000,GAGAL
Lajang,Sedikit,Swasta,Besar,45000000,15000000,SUKSES
Lajang,Sedikit,Swasta,Besar,45000000,15000000,SUKSES
Lajang,Sedikit,TNI,Besar,45000000,15000000,SUKSES
Lajang,Sedikit,TNI,Besar,45000000,15000000,SUKSES
Nikah,Sedang,PNS,Besar,75000000,10000000,GAGAL
Nikah,Sedang,Swasta,Besar,60000000,16000000,GAGAL
Lajang,Sedikit,TNI,Besar,45000000,5000000,GAGAL
Nikah,Sedang,PNS,Besar,75000000,10000000,GAGAL
Nikah,Sedang,Swasta,Besar,60000000,16000000,GAGAL
Lajang,Sedikit,TNI,Besar,45000000,5000000,GAGAL
Lajang,Sedikit,Swasta,Besar,45000000,15000000,SUKSES
Lajang,Sedikit,Swasta,Besar,45000000,15000000,SUKSES
Lajang,Sedikit,TNI,Besar,45000000,15000000,SUKSES
Lajang,Sedikit,TNI,Besar,45000000,15000000,SUKSES
Nikah,Sedang,PNS,Besar,75000000,10000000,GAGAL
Nikah,Sedang,Swasta,Besar,60000000,16000000,GAGAL
Lajang,Sedikit,TNI,Besar,45000000,5000000,GAGAL
Nikah,Sedang,PNS,Besar,75000000,10000000,GAGAL
Nikah,Sedang,Swasta,Besar,60000000,16000000,GAGAL
Lajang,Sedikit,TNI,Besar,45000000,5000000,GAGAL
Lajang,Sedikit,Swasta,Besar,45000000,15000000,SUKSES
Lajang,Sedikit,Swasta,Besar,45000000,15000000,SUKSES
Lajang,Sedikit,TNI,Besar,45000000,15000000,SUKSES
Lajang,Sedikit,TNI,Besar,45000000,15000000,SUKSES
Nikah,Sedang,PNS,Besar,75000000,10000000,GAGAL
Nikah,Sedang,Swasta,Besar,60000000,16000000,GAGAL
Lajang,Sedikit,TNI,Besar,45000000,5000000,GAGAL
